{
  "runtimeTarget": {
    "name": ".NETCoreApp,Version=v2.1",
    "signature": "3e94beee3bbc1cd22d68c72b6540c96ad86f813e"
  },
  "compilationOptions": {},
  "targets": {
    ".NETCoreApp,Version=v2.1": {
      "SupBankChain.App/1.0.0": {
        "dependencies": {
          "Microsoft.Extensions.DependencyInjection": "2.1.1",
          "SupBankChain.Core": "1.0.0"
        },
        "runtime": {
          "SupBankChain.App.dll": {}
        }
      },
      "log4net/2.0.8": {
        "dependencies": {
          "System.AppContext": "4.1.0",
          "System.Collections.NonGeneric": "4.0.1",
          "System.Console": "4.0.0",
          "System.Diagnostics.Debug": "4.0.11",
          "System.Diagnostics.Process": "4.1.0",
          "System.Diagnostics.StackTrace": "4.0.1",
          "System.Diagnostics.TraceSource": "4.0.0",
          "System.IO.FileSystem": "4.0.1",
          "System.IO.FileSystem.Watcher": "4.0.0",
          "System.Linq": "4.1.0",
          "System.Net.NameResolution": "4.0.0",
          "System.Net.Requests": "4.0.11",
          "System.Net.Sockets": "4.1.0",
          "System.Reflection": "4.3.0",
          "System.Reflection.Extensions": "4.0.1",
          "System.Reflection.TypeExtensions": "4.1.0",
          "System.Runtime.Extensions": "4.1.0",
          "System.Runtime.InteropServices": "4.1.0",
          "System.Runtime.InteropServices.RuntimeInformation": "4.0.0",
          "System.Runtime.Serialization.Formatters": "4.3.0",
          "System.Text.RegularExpressions": "4.1.0",
          "System.Threading": "4.0.11",
          "System.Threading.Thread": "4.0.0",
          "System.Threading.Timer": "4.0.1",
          "System.Xml.ReaderWriter": "4.0.11",
          "System.Xml.XmlDocument": "4.0.1"
        },
        "runtime": {
          "lib/netstandard1.3/log4net.dll": {
            "assemblyVersion": "2.0.8.0",
            "fileVersion": "2.0.8.0"
          }
        }
      },
      "Microsoft.CSharp/4.5.0": {},
      "Microsoft.Extensions.DependencyInjection/2.1.1": {
        "dependencies": {
          "Microsoft.Extensions.DependencyInjection.Abstractions": "2.1.1"
        },
        "runtime": {
          "lib/netcoreapp2.0/Microsoft.Extensions.DependencyInjection.dll": {
            "assemblyVersion": "2.1.1.0",
            "fileVersion": "2.1.1.18157"
          }
        }
      },
      "Microsoft.Extensions.DependencyInjection.Abstractions/2.1.1": {
        "runtime": {
          "lib/netstandard2.0/Microsoft.Extensions.DependencyInjection.Abstractions.dll": {
            "assemblyVersion": "2.1.1.0",
            "fileVersion": "2.1.1.18157"
          }
        }
      },
      "Microsoft.Win32.Primitives/4.0.1": {
        "dependencies": {
          "System.Runtime": "4.3.0"
        }
      },
      "Microsoft.Win32.Registry/4.0.0": {
        "dependencies": {
          "System.Collections": "4.3.0",
          "System.Globalization": "4.3.0",
          "System.Resources.ResourceManager": "4.3.0",
          "System.Runtime": "4.3.0",
          "System.Runtime.Extensions": "4.1.0",
          "System.Runtime.Handles": "4.0.1",
          "System.Runtime.InteropServices": "4.1.0"
        },
        "runtimeTargets": {
          "runtime/unix/lib/_._": {
            "rid": "unix",
            "assetType": "runtime"
          },
          "runtime/win/lib/_._": {
            "rid": "win",
            "assetType": "runtime"
          }
        }
      },
      "NETCore.Encrypt/2.0.7": {
        "dependencies": {
          "Newtonsoft.Json": "12.0.1"
        },
        "runtime": {
          "lib/netstandard2.0/NETCore.Encrypt.dll": {
            "assemblyVersion": "2.0.7.0",
            "fileVersion": "2.0.7.0"
          }
        }
      },
      "Newtonsoft.Json/12.0.1": {
        "runtime": {
          "lib/netstandard2.0/Newtonsoft.Json.dll": {
            "assemblyVersion": "12.0.0.0",
            "fileVersion": "12.0.1.22727"
          }
        }
      },
      "Open.NAT.Core/2.1.0": {
        "runtime": {
          "lib/netstandard2.0/Open.Nat.dll": {
            "assemblyVersion": "2.1.0.0",
            "fileVersion": "2.1.0.0"
          }
        }
      },
      "runtime.native.System/4.0.0": {},
      "runtime.native.System.Net.Http/4.0.1": {},
      "runtime.native.System.Security.Cryptography/4.0.0": {},
      "System.AppContext/4.1.0": {
        "dependencies": {
          "System.Runtime": "4.3.0"
        }
      },
      "System.Collections/4.3.0": {
        "dependencies": {
          "System.Runtime": "4.3.0"
        }
      },
      "System.Collections.Concurrent/4.0.12": {
        "dependencies": {
          "System.Collections": "4.3.0",
          "System.Diagnostics.Debug": "4.0.11",
          "System.Diagnostics.Tracing": "4.1.0",
          "System.Globalization": "4.3.0",
          "System.Reflection": "4.3.0",
          "System.Resources.ResourceManager": "4.3.0",
          "System.Runtime": "4.3.0",
          "System.Runtime.Extensions": "4.1.0",
          "System.Threading": "4.0.11",
          "System.Threading.Tasks": "4.3.0"
        }
      },
      "System.Collections.Immutable/1.2.0": {
        "dependencies": {
          "System.Collections": "4.3.0",
          "System.Diagnostics.Debug": "4.0.11",
          "System.Globalization": "4.3.0",
          "System.Linq": "4.1.0",
          "System.Resources.ResourceManager": "4.3.0",
          "System.Runtime": "4.3.0",
          "System.Runtime.Extensions": "4.1.0",
          "System.Threading": "4.0.11"
        }
      },
      "System.Collections.NonGeneric/4.0.1": {
        "dependencies": {
          "System.Diagnostics.Debug": "4.0.11",
          "System.Globalization": "4.3.0",
          "System.Resources.ResourceManager": "4.3.0",
          "System.Runtime": "4.3.0",
          "System.Runtime.Extensions": "4.1.0",
          "System.Threading": "4.0.11"
        }
      },
      "System.Console/4.0.0": {
        "dependencies": {
          "System.IO": "4.3.0",
          "System.Runtime": "4.3.0",
          "System.Text.Encoding": "4.3.0"
        }
      },
      "System.Diagnostics.Debug/4.0.11": {
        "dependencies": {
          "System.Runtime": "4.3.0"
        }
      },
      "System.Diagnostics.DiagnosticSource/4.0.0": {
        "dependencies": {
          "System.Collections": "4.3.0",
          "System.Diagnostics.Tracing": "4.1.0",
          "System.Reflection": "4.3.0",
          "System.Runtime": "4.3.0",
          "System.Threading": "4.0.11"
        }
      },
      "System.Diagnostics.Process/4.1.0": {
        "dependencies": {
          "Microsoft.Win32.Primitives": "4.0.1",
          "Microsoft.Win32.Registry": "4.0.0",
          "System.Collections": "4.3.0",
          "System.Diagnostics.Debug": "4.0.11",
          "System.Globalization": "4.3.0",
          "System.IO": "4.3.0",
          "System.IO.FileSystem": "4.0.1",
          "System.IO.FileSystem.Primitives": "4.0.1",
          "System.Resources.ResourceManager": "4.3.0",
          "System.Runtime": "4.3.0",
          "System.Runtime.Extensions": "4.1.0",
          "System.Runtime.Handles": "4.0.1",
          "System.Runtime.InteropServices": "4.1.0",
          "System.Text.Encoding": "4.3.0",
          "System.Text.Encoding.Extensions": "4.0.11",
          "System.Threading": "4.0.11",
          "System.Threading.Tasks": "4.3.0",
          "System.Threading.Thread": "4.0.0",
          "System.Threading.ThreadPool": "4.0.10",
          "runtime.native.System": "4.0.0"
        },
        "runtimeTargets": {
          "runtime/linux/lib/_._": {
            "rid": "linux",
            "assetType": "runtime"
          },
          "runtime/osx/lib/_._": {
            "rid": "osx",
            "assetType": "runtime"
          },
          "runtime/win/lib/_._": {
            "rid": "win",
            "assetType": "runtime"
          }
        }
      },
      "System.Diagnostics.StackTrace/4.0.1": {
        "dependencies": {
          "System.Collections.Immutable": "1.2.0",
          "System.IO.FileSystem": "4.0.1",
          "System.Reflection": "4.3.0",
          "System.Reflection.Metadata": "1.3.0",
          "System.Runtime": "4.3.0",
          "System.Runtime.Extensions": "4.1.0"
        }
      },
      "System.Diagnostics.TraceSource/4.0.0": {
        "dependencies": {
          "System.Collections": "4.3.0",
          "System.Diagnostics.Debug": "4.0.11",
          "System.Globalization": "4.3.0",
          "System.Resources.ResourceManager": "4.3.0",
          "System.Runtime": "4.3.0",
          "System.Runtime.Extensions": "4.1.0",
          "System.Threading": "4.0.11",
          "runtime.native.System": "4.0.0"
        },
        "runtimeTargets": {
          "runtime/unix/lib/_._": {
            "rid": "unix",
            "assetType": "runtime"
          },
          "runtime/win/lib/_._": {
            "rid": "win",
            "assetType": "runtime"
          }
        }
      },
      "System.Diagnostics.Tracing/4.1.0": {
        "dependencies": {
          "System.Runtime": "4.3.0"
        }
      },
      "System.Globalization/4.3.0": {
        "dependencies": {
          "System.Runtime": "4.3.0"
        }
      },
      "System.Globalization.Calendars/4.0.1": {
        "dependencies": {
          "System.Globalization": "4.3.0",
          "System.Runtime": "4.3.0"
        }
      },
      "System.Globalization.Extensions/4.0.1": {
        "dependencies": {
          "System.Globalization": "4.3.0",
          "System.Resources.ResourceManager": "4.3.0",
          "System.Runtime": "4.3.0",
          "System.Runtime.Extensions": "4.1.0",
          "System.Runtime.InteropServices": "4.1.0"
        },
        "runtimeTargets": {
          "runtime/unix/lib/_._": {
            "rid": "unix",
            "assetType": "runtime"
          },
          "runtime/win/lib/_._": {
            "rid": "win",
            "assetType": "runtime"
          }
        }
      },
      "System.IO/4.3.0": {
        "dependencies": {
          "System.Runtime": "4.3.0",
          "System.Text.Encoding": "4.3.0",
          "System.Threading.Tasks": "4.3.0"
        }
      },
      "System.IO.FileSystem/4.0.1": {
        "dependencies": {
          "System.IO": "4.3.0",
          "System.IO.FileSystem.Primitives": "4.0.1",
          "System.Runtime": "4.3.0",
          "System.Runtime.Handles": "4.0.1",
          "System.Text.Encoding": "4.3.0",
          "System.Threading.Tasks": "4.3.0"
        }
      },
      "System.IO.FileSystem.Primitives/4.0.1": {
        "dependencies": {
          "System.Runtime": "4.3.0"
        }
      },
      "System.IO.FileSystem.Watcher/4.0.0": {
        "dependencies": {
          "Microsoft.Win32.Primitives": "4.0.1",
          "System.Collections": "4.3.0",
          "System.IO.FileSystem": "4.0.1",
          "System.IO.FileSystem.Primitives": "4.0.1",
          "System.Resources.ResourceManager": "4.3.0",
          "System.Runtime": "4.3.0",
          "System.Runtime.Extensions": "4.1.0",
          "System.Runtime.Handles": "4.0.1",
          "System.Runtime.InteropServices": "4.1.0",
          "System.Text.Encoding": "4.3.0",
          "System.Threading": "4.0.11",
          "System.Threading.Overlapped": "4.0.1",
          "System.Threading.Tasks": "4.3.0",
          "System.Threading.Thread": "4.0.0",
          "runtime.native.System": "4.0.0"
        },
        "runtimeTargets": {
          "runtime/linux/lib/_._": {
            "rid": "linux",
            "assetType": "runtime"
          },
          "runtime/osx/lib/_._": {
            "rid": "osx",
            "assetType": "runtime"
          },
          "runtime/win/lib/_._": {
            "rid": "win",
            "assetType": "runtime"
          }
        }
      },
      "System.Linq/4.1.0": {
        "dependencies": {
          "System.Collections": "4.3.0",
          "System.Diagnostics.Debug": "4.0.11",
          "System.Resources.ResourceManager": "4.3.0",
          "System.Runtime": "4.3.0",
          "System.Runtime.Extensions": "4.1.0"
        }
      },
      "System.Net.Http/4.1.0": {
        "dependencies": {
          "System.Collections": "4.3.0",
          "System.Diagnostics.Debug": "4.0.11",
          "System.Diagnostics.DiagnosticSource": "4.0.0",
          "System.Diagnostics.Tracing": "4.1.0",
          "System.Globalization": "4.3.0",
          "System.Globalization.Extensions": "4.0.1",
          "System.IO": "4.3.0",
          "System.IO.FileSystem": "4.0.1",
          "System.Net.Primitives": "4.0.11",
          "System.Resources.ResourceManager": "4.3.0",
          "System.Runtime": "4.3.0",
          "System.Runtime.Extensions": "4.1.0",
          "System.Runtime.Handles": "4.0.1",
          "System.Runtime.InteropServices": "4.1.0",
          "System.Security.Cryptography.Algorithms": "4.2.0",
          "System.Security.Cryptography.Encoding": "4.0.0",
          "System.Security.Cryptography.OpenSsl": "4.0.0",
          "System.Security.Cryptography.Primitives": "4.0.0",
          "System.Security.Cryptography.X509Certificates": "4.1.0",
          "System.Text.Encoding": "4.3.0",
          "System.Threading": "4.0.11",
          "System.Threading.Tasks": "4.3.0",
          "runtime.native.System": "4.0.0",
          "runtime.native.System.Net.Http": "4.0.1",
          "runtime.native.System.Security.Cryptography": "4.0.0"
        },
        "runtimeTargets": {
          "runtime/unix/lib/_._": {
            "rid": "unix",
            "assetType": "runtime"
          },
          "runtime/win/lib/_._": {
            "rid": "win",
            "assetType": "runtime"
          }
        }
      },
      "System.Net.NameResolution/4.0.0": {
        "dependencies": {
          "System.Collections": "4.3.0",
          "System.Diagnostics.Tracing": "4.1.0",
          "System.Globalization": "4.3.0",
          "System.Net.Primitives": "4.0.11",
          "System.Resources.ResourceManager": "4.3.0",
          "System.Runtime": "4.3.0",
          "System.Runtime.Extensions": "4.1.0",
          "System.Runtime.Handles": "4.0.1",
          "System.Runtime.InteropServices": "4.1.0",
          "System.Security.Principal.Windows": "4.0.0",
          "System.Threading": "4.0.11",
          "System.Threading.Tasks": "4.3.0",
          "runtime.native.System": "4.0.0"
        },
        "runtimeTargets": {
          "runtime/unix/lib/_._": {
            "rid": "unix",
            "assetType": "runtime"
          },
          "runtime/win/lib/_._": {
            "rid": "win",
            "assetType": "runtime"
          }
        }
      },
      "System.Net.Primitives/4.0.11": {
        "dependencies": {
          "System.Runtime": "4.3.0",
          "System.Runtime.Handles": "4.0.1"
        }
      },
      "System.Net.Requests/4.0.11": {
        "dependencies": {
          "System.Collections": "4.3.0",
          "System.Diagnostics.Debug": "4.0.11",
          "System.Diagnostics.Tracing": "4.1.0",
          "System.Globalization": "4.3.0",
          "System.IO": "4.3.0",
          "System.Net.Http": "4.1.0",
          "System.Net.Primitives": "4.0.11",
          "System.Net.WebHeaderCollection": "4.0.1",
          "System.Resources.ResourceManager": "4.3.0",
          "System.Runtime": "4.3.0",
          "System.Threading": "4.0.11",
          "System.Threading.Tasks": "4.3.0"
        },
        "runtimeTargets": {
          "runtime/unix/lib/_._": {
            "rid": "unix",
            "assetType": "runtime"
          },
          "runtime/win/lib/_._": {
            "rid": "win",
            "assetType": "runtime"
          }
        }
      },
      "System.Net.Sockets/4.1.0": {
        "dependencies": {
          "System.IO": "4.3.0",
          "System.Net.Primitives": "4.0.11",
          "System.Runtime": "4.3.0",
          "System.Threading.Tasks": "4.3.0"
        }
      },
      "System.Net.WebHeaderCollection/4.0.1": {
        "dependencies": {
          "System.Collections": "4.3.0",
          "System.Resources.ResourceManager": "4.3.0",
          "System.Runtime": "4.3.0",
          "System.Runtime.Extensions": "4.1.0"
        }
      },
      "System.Reflection/4.3.0": {
        "dependencies": {
          "System.IO": "4.3.0",
          "System.Reflection.Primitives": "4.3.0",
          "System.Runtime": "4.3.0"
        }
      },
      "System.Reflection.Extensions/4.0.1": {
        "dependencies": {
          "System.Reflection": "4.3.0",
          "System.Runtime": "4.3.0"
        }
      },
      "System.Reflection.Metadata/1.3.0": {
        "dependencies": {
          "System.Collections": "4.3.0",
          "System.Collections.Immutable": "1.2.0",
          "System.Diagnostics.Debug": "4.0.11",
          "System.IO": "4.3.0",
          "System.Linq": "4.1.0",
          "System.Reflection": "4.3.0",
          "System.Reflection.Extensions": "4.0.1",
          "System.Reflection.Primitives": "4.3.0",
          "System.Resources.ResourceManager": "4.3.0",
          "System.Runtime": "4.3.0",
          "System.Runtime.Extensions": "4.1.0",
          "System.Runtime.InteropServices": "4.1.0",
          "System.Text.Encoding": "4.3.0",
          "System.Text.Encoding.Extensions": "4.0.11",
          "System.Threading": "4.0.11"
        }
      },
      "System.Reflection.Primitives/4.3.0": {
        "dependencies": {
          "System.Runtime": "4.3.0"
        }
      },
      "System.Reflection.TypeExtensions/4.1.0": {
        "dependencies": {
          "System.Reflection": "4.3.0",
          "System.Runtime": "4.3.0"
        }
      },
      "System.Resources.ResourceManager/4.3.0": {
        "dependencies": {
          "System.Globalization": "4.3.0",
          "System.Reflection": "4.3.0",
          "System.Runtime": "4.3.0"
        }
      },
      "System.Runtime/4.3.0": {},
      "System.Runtime.Extensions/4.1.0": {
        "dependencies": {
          "System.Runtime": "4.3.0"
        }
      },
      "System.Runtime.Handles/4.0.1": {
        "dependencies": {
          "System.Runtime": "4.3.0"
        }
      },
      "System.Runtime.InteropServices/4.1.0": {
        "dependencies": {
          "System.Reflection": "4.3.0",
          "System.Reflection.Primitives": "4.3.0",
          "System.Runtime": "4.3.0",
          "System.Runtime.Handles": "4.0.1"
        }
      },
      "System.Runtime.InteropServices.RuntimeInformation/4.0.0": {
        "dependencies": {
          "System.Reflection": "4.3.0",
          "System.Resources.ResourceManager": "4.3.0",
          "System.Runtime": "4.3.0",
          "System.Runtime.InteropServices": "4.1.0",
          "System.Threading": "4.0.11",
          "runtime.native.System": "4.0.0"
        },
        "runtimeTargets": {
          "runtime/unix/lib/_._": {
            "rid": "unix",
            "assetType": "runtime"
          },
          "runtime/win/lib/_._": {
            "rid": "win",
            "assetType": "runtime"
          }
        }
      },
      "System.Runtime.Numerics/4.0.1": {
        "dependencies": {
          "System.Globalization": "4.3.0",
          "System.Resources.ResourceManager": "4.3.0",
          "System.Runtime": "4.3.0",
          "System.Runtime.Extensions": "4.1.0"
        }
      },
      "System.Runtime.Serialization.Formatters/4.3.0": {
        "dependencies": {
          "System.Collections": "4.3.0",
          "System.Reflection": "4.3.0",
          "System.Resources.ResourceManager": "4.3.0",
          "System.Runtime": "4.3.0",
          "System.Runtime.Serialization.Primitives": "4.3.0"
        }
      },
      "System.Runtime.Serialization.Primitives/4.3.0": {
        "dependencies": {
          "System.Resources.ResourceManager": "4.3.0",
          "System.Runtime": "4.3.0"
        }
      },
      "System.Security.Claims/4.0.1": {
        "dependencies": {
          "System.Collections": "4.3.0",
          "System.Globalization": "4.3.0",
          "System.IO": "4.3.0",
          "System.Resources.ResourceManager": "4.3.0",
          "System.Runtime": "4.3.0",
          "System.Runtime.Extensions": "4.1.0",
          "System.Security.Principal": "4.0.1"
        }
      },
      "System.Security.Cryptography.Algorithms/4.2.0": {
        "dependencies": {
          "System.Collections": "4.3.0",
          "System.IO": "4.3.0",
          "System.Resources.ResourceManager": "4.3.0",
          "System.Runtime": "4.3.0",
          "System.Runtime.Extensions": "4.1.0",
          "System.Runtime.Handles": "4.0.1",
          "System.Runtime.InteropServices": "4.1.0",
          "System.Runtime.Numerics": "4.0.1",
          "System.Security.Cryptography.Encoding": "4.0.0",
          "System.Security.Cryptography.Primitives": "4.0.0",
          "System.Text.Encoding": "4.3.0",
          "runtime.native.System.Security.Cryptography": "4.0.0"
        },
        "runtimeTargets": {
          "runtime/unix/lib/_._": {
            "rid": "unix",
            "assetType": "runtime"
          },
          "runtime/win/lib/_._": {
            "rid": "win",
            "assetType": "runtime"
          }
        }
      },
      "System.Security.Cryptography.Cng/4.2.0": {
        "dependencies": {
          "System.IO": "4.3.0",
          "System.Resources.ResourceManager": "4.3.0",
          "System.Runtime": "4.3.0",
          "System.Runtime.Extensions": "4.1.0",
          "System.Runtime.Handles": "4.0.1",
          "System.Runtime.InteropServices": "4.1.0",
          "System.Security.Cryptography.Algorithms": "4.2.0",
          "System.Security.Cryptography.Encoding": "4.0.0",
          "System.Security.Cryptography.Primitives": "4.0.0",
          "System.Text.Encoding": "4.3.0"
        },
        "runtimeTargets": {
          "runtime/unix/lib/_._": {
            "rid": "unix",
            "assetType": "runtime"
          },
          "runtime/win/lib/_._": {
            "rid": "win",
            "assetType": "runtime"
          }
        }
      },
      "System.Security.Cryptography.Csp/4.0.0": {
        "dependencies": {
          "System.IO": "4.3.0",
          "System.Reflection": "4.3.0",
          "System.Resources.ResourceManager": "4.3.0",
          "System.Runtime": "4.3.0",
          "System.Runtime.Extensions": "4.1.0",
          "System.Runtime.Handles": "4.0.1",
          "System.Runtime.InteropServices": "4.1.0",
          "System.Security.Cryptography.Algorithms": "4.2.0",
          "System.Security.Cryptography.Encoding": "4.0.0",
          "System.Security.Cryptography.Primitives": "4.0.0",
          "System.Text.Encoding": "4.3.0",
          "System.Threading": "4.0.11"
        },
        "runtimeTargets": {
          "runtime/unix/lib/_._": {
            "rid": "unix",
            "assetType": "runtime"
          },
          "runtime/win/lib/_._": {
            "rid": "win",
            "assetType": "runtime"
          }
        }
      },
      "System.Security.Cryptography.Encoding/4.0.0": {
        "dependencies": {
          "System.Collections": "4.3.0",
          "System.Collections.Concurrent": "4.0.12",
          "System.Linq": "4.1.0",
          "System.Resources.ResourceManager": "4.3.0",
          "System.Runtime": "4.3.0",
          "System.Runtime.Extensions": "4.1.0",
          "System.Runtime.Handles": "4.0.1",
          "System.Runtime.InteropServices": "4.1.0",
          "System.Security.Cryptography.Primitives": "4.0.0",
          "System.Text.Encoding": "4.3.0",
          "runtime.native.System.Security.Cryptography": "4.0.0"
        },
        "runtimeTargets": {
          "runtime/unix/lib/_._": {
            "rid": "unix",
            "assetType": "runtime"
          },
          "runtime/win/lib/_._": {
            "rid": "win",
            "assetType": "runtime"
          }
        }
      },
      "System.Security.Cryptography.OpenSsl/4.0.0": {
        "dependencies": {
          "System.Collections": "4.3.0",
          "System.IO": "4.3.0",
          "System.Resources.ResourceManager": "4.3.0",
          "System.Runtime": "4.3.0",
          "System.Runtime.Extensions": "4.1.0",
          "System.Runtime.Handles": "4.0.1",
          "System.Runtime.InteropServices": "4.1.0",
          "System.Runtime.Numerics": "4.0.1",
          "System.Security.Cryptography.Algorithms": "4.2.0",
          "System.Security.Cryptography.Encoding": "4.0.0",
          "System.Security.Cryptography.Primitives": "4.0.0",
          "System.Text.Encoding": "4.3.0",
          "runtime.native.System.Security.Cryptography": "4.0.0"
        },
        "runtimeTargets": {
          "runtime/unix/lib/_._": {
            "rid": "unix",
            "assetType": "runtime"
          }
        }
      },
      "System.Security.Cryptography.Primitives/4.0.0": {
        "dependencies": {
          "System.Diagnostics.Debug": "4.0.11",
          "System.Globalization": "4.3.0",
          "System.IO": "4.3.0",
          "System.Resources.ResourceManager": "4.3.0",
          "System.Runtime": "4.3.0",
          "System.Threading": "4.0.11",
          "System.Threading.Tasks": "4.3.0"
        }
      },
      "System.Security.Cryptography.X509Certificates/4.1.0": {
        "dependencies": {
          "System.Collections": "4.3.0",
          "System.Diagnostics.Debug": "4.0.11",
          "System.Globalization": "4.3.0",
          "System.Globalization.Calendars": "4.0.1",
          "System.IO": "4.3.0",
          "System.IO.FileSystem": "4.0.1",
          "System.IO.FileSystem.Primitives": "4.0.1",
          "System.Resources.ResourceManager": "4.3.0",
          "System.Runtime": "4.3.0",
          "System.Runtime.Extensions": "4.1.0",
          "System.Runtime.Handles": "4.0.1",
          "System.Runtime.InteropServices": "4.1.0",
          "System.Runtime.Numerics": "4.0.1",
          "System.Security.Cryptography.Algorithms": "4.2.0",
          "System.Security.Cryptography.Cng": "4.2.0",
          "System.Security.Cryptography.Csp": "4.0.0",
          "System.Security.Cryptography.Encoding": "4.0.0",
          "System.Security.Cryptography.OpenSsl": "4.0.0",
          "System.Security.Cryptography.Primitives": "4.0.0",
          "System.Text.Encoding": "4.3.0",
          "System.Threading": "4.0.11",
          "runtime.native.System": "4.0.0",
          "runtime.native.System.Net.Http": "4.0.1",
          "runtime.native.System.Security.Cryptography": "4.0.0"
        },
        "runtimeTargets": {
          "runtime/unix/lib/_._": {
            "rid": "unix",
            "assetType": "runtime"
          },
          "runtime/win/lib/_._": {
            "rid": "win",
            "assetType": "runtime"
          }
        }
      },
      "System.Security.Principal/4.0.1": {
        "dependencies": {
          "System.Runtime": "4.3.0"
        }
      },
      "System.Security.Principal.Windows/4.0.0": {
        "dependencies": {
          "Microsoft.Win32.Primitives": "4.0.1",
          "System.Collections": "4.3.0",
          "System.Diagnostics.Debug": "4.0.11",
          "System.Reflection": "4.3.0",
          "System.Resources.ResourceManager": "4.3.0",
          "System.Runtime": "4.3.0",
          "System.Runtime.Extensions": "4.1.0",
          "System.Runtime.Handles": "4.0.1",
          "System.Runtime.InteropServices": "4.1.0",
          "System.Security.Claims": "4.0.1",
          "System.Security.Principal": "4.0.1",
          "System.Text.Encoding": "4.3.0",
          "System.Threading": "4.0.11"
        },
        "runtimeTargets": {
          "runtime/unix/lib/_._": {
            "rid": "unix",
            "assetType": "runtime"
          },
          "runtime/win/lib/_._": {
            "rid": "win",
            "assetType": "runtime"
          }
        }
      },
      "System.Text.Encoding/4.3.0": {
        "dependencies": {
          "System.Runtime": "4.3.0"
        }
      },
      "System.Text.Encoding.Extensions/4.0.11": {
        "dependencies": {
          "System.Runtime": "4.3.0",
          "System.Text.Encoding": "4.3.0"
        }
      },
      "System.Text.RegularExpressions/4.1.0": {
        "dependencies": {
          "System.Collections": "4.3.0",
          "System.Globalization": "4.3.0",
          "System.Resources.ResourceManager": "4.3.0",
          "System.Runtime": "4.3.0",
          "System.Runtime.Extensions": "4.1.0",
          "System.Threading": "4.0.11"
        }
      },
      "System.Threading/4.0.11": {
        "dependencies": {
          "System.Runtime": "4.3.0",
          "System.Threading.Tasks": "4.3.0"
        }
      },
      "System.Threading.Overlapped/4.0.1": {
        "dependencies": {
          "System.Resources.ResourceManager": "4.3.0",
          "System.Runtime": "4.3.0",
          "System.Runtime.Handles": "4.0.1"
        },
        "runtimeTargets": {
          "runtime/unix/lib/_._": {
            "rid": "unix",
            "assetType": "runtime"
          },
          "runtime/win/lib/_._": {
            "rid": "win",
            "assetType": "runtime"
          }
        }
      },
      "System.Threading.Tasks/4.3.0": {
        "dependencies": {
          "System.Runtime": "4.3.0"
        }
      },
      "System.Threading.Tasks.Extensions/4.0.0": {
        "dependencies": {
          "System.Collections": "4.3.0",
          "System.Runtime": "4.3.0",
          "System.Threading.Tasks": "4.3.0"
        }
      },
      "System.Threading.Thread/4.0.0": {
        "dependencies": {
          "System.Runtime": "4.3.0"
        }
      },
      "System.Threading.ThreadPool/4.0.10": {
        "dependencies": {
          "System.Runtime": "4.3.0",
          "System.Runtime.Handles": "4.0.1"
        }
      },
      "System.Threading.Timer/4.0.1": {
        "dependencies": {
          "System.Runtime": "4.3.0"
        }
      },
      "System.Xml.ReaderWriter/4.0.11": {
        "dependencies": {
          "System.Collections": "4.3.0",
          "System.Diagnostics.Debug": "4.0.11",
          "System.Globalization": "4.3.0",
          "System.IO": "4.3.0",
          "System.IO.FileSystem": "4.0.1",
          "System.IO.FileSystem.Primitives": "4.0.1",
          "System.Resources.ResourceManager": "4.3.0",
          "System.Runtime": "4.3.0",
          "System.Runtime.Extensions": "4.1.0",
          "System.Runtime.InteropServices": "4.1.0",
          "System.Text.Encoding": "4.3.0",
          "System.Text.Encoding.Extensions": "4.0.11",
          "System.Text.RegularExpressions": "4.1.0",
          "System.Threading.Tasks": "4.3.0",
          "System.Threading.Tasks.Extensions": "4.0.0"
        }
      },
      "System.Xml.XmlDocument/4.0.1": {
        "dependencies": {
          "System.Collections": "4.3.0",
          "System.Diagnostics.Debug": "4.0.11",
          "System.Globalization": "4.3.0",
          "System.IO": "4.3.0",
          "System.Resources.ResourceManager": "4.3.0",
          "System.Runtime": "4.3.0",
          "System.Runtime.Extensions": "4.1.0",
          "System.Text.Encoding": "4.3.0",
          "System.Threading": "4.0.11",
          "System.Xml.ReaderWriter": "4.0.11"
        }
      },
      "websocketsharp.core/1.0.0": {
        "runtime": {
          "lib/netstandard2.0/websocket-sharp-core.dll": {
            "assemblyVersion": "1.0.0.0",
            "fileVersion": "1.0.0.0"
          }
        }
      },
      "SupBankChain.Core/1.0.0": {
        "dependencies": {
          "Microsoft.CSharp": "4.5.0",
          "NETCore.Encrypt": "2.0.7",
          "Newtonsoft.Json": "12.0.1",
          "Open.NAT.Core": "2.1.0",
          "log4net": "2.0.8",
          "websocketsharp.core": "1.0.0"
        },
        "runtime": {
          "SupBankChain.Core.dll": {}
        }
      }
    }
  },
  "libraries": {
    "SupBankChain.App/1.0.0": {
      "type": "project",
      "serviceable": false,
      "sha512": ""
    },
    "log4net/2.0.8": {
      "type": "package",
      "serviceable": true,
      "sha512": "sha512-N41MQGHZImiCfn0cUuSBjZxrcNfIQCuCgQP0rpgB3J/NWponEh3lc1LxJEuIsPAR9Oc1jVvfkNNFCY1C5hf9LA==",
      "path": "log4net/2.0.8",
      "hashPath": "log4net.2.0.8.nupkg.sha512"
    },
    "Microsoft.CSharp/4.5.0": {
      "type": "package",
      "serviceable": true,
      "sha512": "sha512-kaj6Wb4qoMuH3HySFJhxwQfe8R/sJsNJnANrvv8WdFPMoNbKY5htfNscv+LHCu5ipz+49m2e+WQXpLXr9XYemQ==",
      "path": "microsoft.csharp/4.5.0",
      "hashPath": "microsoft.csharp.4.5.0.nupkg.sha512"
    },
    "Microsoft.Extensions.DependencyInjection/2.1.1": {
      "type": "package",
      "serviceable": true,
      "sha512": "sha512-RVdgNWT/73M0eCpreGpWv5NmbHFGQzzW+G7nChK8ej84m+d1nzeWrtqcRYnEpKNx3B8V/Uek4tNP0WCaCNjYnQ==",
      "path": "microsoft.extensions.dependencyinjection/2.1.1",
      "hashPath": "microsoft.extensions.dependencyinjection.2.1.1.nupkg.sha512"
    },
    "Microsoft.Extensions.DependencyInjection.Abstractions/2.1.1": {
      "type": "package",
      "serviceable": true,
      "sha512": "sha512-MgYpU5cwZohUMKKg3sbPhvGG+eAZ/59E9UwPwlrUkyXU+PGzqwZg9yyQNjhxuAWmoNoFReoemeCku50prYSGzA==",
      "path": "microsoft.extensions.dependencyinjection.abstractions/2.1.1",
      "hashPath": "microsoft.extensions.dependencyinjection.abstractions.2.1.1.nupkg.sha512"
    },
    "Microsoft.Win32.Primitives/4.0.1": {
      "type": "package",
      "serviceable": true,
      "sha512": "sha512-fQnBHO9DgcmkC9dYSJoBqo6sH1VJwJprUHh8F3hbcRlxiQiBUuTntdk8tUwV490OqC2kQUrinGwZyQHTieuXRA==",
      "path": "microsoft.win32.primitives/4.0.1",
      "hashPath": "microsoft.win32.primitives.4.0.1.nupkg.sha512"
    },
    "Microsoft.Win32.Registry/4.0.0": {
      "type": "package",
      "serviceable": true,
      "sha512": "sha512-q+eLtROUAQ3OxYA5mpQrgyFgzLQxIyrfT2eLpYX5IEPlHmIio2nh4F5bgOaQoGOV865kFKZZso9Oq9RlazvXtg==",
      "path": "microsoft.win32.registry/4.0.0",
      "hashPath": "microsoft.win32.registry.4.0.0.nupkg.sha512"
    },
    "NETCore.Encrypt/2.0.7": {
      "type": "package",
      "serviceable": true,
      "sha512": "sha512-BlrVEoLCYERdXYMBCd12cNDpxztSdGBoqq8qKgrqa0ZQKMrdyxdtYavPekz7aDhbPLdEKY70osoo2hq6Cwc8eg==",
      "path": "netcore.encrypt/2.0.7",
      "hashPath": "netcore.encrypt.2.0.7.nupkg.sha512"
    },
    "Newtonsoft.Json/12.0.1": {
      "type": "package",
      "serviceable": true,
      "sha512": "sha512-pBR3wCgYWZGiaZDYP+HHYnalVnPJlpP1q55qvVb+adrDHmFMDc1NAKio61xTwftK3Pw5h7TZJPJEEVMd6ty8rg==",
      "path": "newtonsoft.json/12.0.1",
      "hashPath": "newtonsoft.json.12.0.1.nupkg.sha512"
    },
    "Open.NAT.Core/2.1.0": {
      "type": "package",
      "serviceable": true,
      "sha512": "sha512-gsXZWeAYAR//U4yxIaqgXdUOCfdODrSEm44Ttf2XCHoZXPo1JNS8bjzLLsQOWIJ5rTzWDvlBfRgW9L3NclQT9A==",
      "path": "open.nat.core/2.1.0",
      "hashPath": "open.nat.core.2.1.0.nupkg.sha512"
    },
    "runtime.native.System/4.0.0": {
      "type": "package",
      "serviceable": true,
      "sha512": "sha512-QfS/nQI7k/BLgmLrw7qm7YBoULEvgWnPI+cYsbfCVFTW8Aj+i8JhccxcFMu1RWms0YZzF+UHguNBK4Qn89e2Sg==",
      "path": "runtime.native.system/4.0.0",
      "hashPath": "runtime.native.system.4.0.0.nupkg.sha512"
    },
    "runtime.native.System.Net.Http/4.0.1": {
      "type": "package",
      "serviceable": true,
      "sha512": "sha512-Nh0UPZx2Vifh8r+J+H2jxifZUD3sBrmolgiFWJd2yiNrxO0xTa6bAw3YwRn1VOiSen/tUXMS31ttNItCZ6lKuA==",
      "path": "runtime.native.system.net.http/4.0.1",
      "hashPath": "runtime.native.system.net.http.4.0.1.nupkg.sha512"
    },
    "runtime.native.System.Security.Cryptography/4.0.0": {
      "type": "package",
      "serviceable": true,
      "sha512": "sha512-2CQK0jmO6Eu7ZeMgD+LOFbNJSXHFVQbCJJkEyEwowh1SCgYnrn9W9RykMfpeeVGw7h4IBvYikzpGUlmZTUafJw==",
      "path": "runtime.native.system.security.cryptography/4.0.0",
      "hashPath": "runtime.native.system.security.cryptography.4.0.0.nupkg.sha512"
    },
    "System.AppContext/4.1.0": {
      "type": "package",
      "serviceable": true,
      "sha512": "sha512-3QjO4jNV7PdKkmQAVp9atA+usVnKRwI3Kx1nMwJ93T0LcQfx7pKAYk0nKz5wn1oP5iqlhZuy6RXOFdhr7rDwow==",
      "path": "system.appcontext/4.1.0",
      "hashPath": "system.appcontext.4.1.0.nupkg.sha512"
    },
    "System.Collections/4.3.0": {
      "type": "package",
      "serviceable": true,
      "sha512": "sha512-3Dcj85/TBdVpL5Zr+gEEBUuFe2icOnLalmEh9hfck1PTYbbyWuZgh4fmm2ysCLTrqLQw6t3TgTyJ+VLp+Qb+Lw==",
      "path": "system.collections/4.3.0",
      "hashPath": "system.collections.4.3.0.nupkg.sha512"
    },
    "System.Collections.Concurrent/4.0.12": {
      "type": "package",
      "serviceable": true,
      "sha512": "sha512-2gBcbb3drMLgxlI0fBfxMA31ec6AEyYCHygGse4vxceJan8mRIWeKJ24BFzN7+bi/NFTgdIgufzb94LWO5EERQ==",
      "path": "system.collections.concurrent/4.0.12",
      "hashPath": "system.collections.concurrent.4.0.12.nupkg.sha512"
    },
    "System.Collections.Immutable/1.2.0": {
      "type": "package",
      "serviceable": true,
      "sha512": "sha512-Cma8cBW6di16ZLibL8LYQ+cLjGzoKxpOTu/faZfDcx94ZjAGq6Nv5RO7+T1YZXqEXTZP9rt1wLVEONVpURtUqw==",
      "path": "system.collections.immutable/1.2.0",
      "hashPath": "system.collections.immutable.1.2.0.nupkg.sha512"
    },
    "System.Collections.NonGeneric/4.0.1": {
      "type": "package",
      "serviceable": true,
      "sha512": "sha512-hMxFT2RhhlffyCdKLDXjx8WEC5JfCvNozAZxCablAuFRH74SCV4AgzE8yJCh/73bFnEoZgJ9MJmkjQ0dJmnKqA==",
      "path": "system.collections.nongeneric/4.0.1",
      "hashPath": "system.collections.nongeneric.4.0.1.nupkg.sha512"
    },
    "System.Console/4.0.0": {
      "type": "package",
      "serviceable": true,
      "sha512": "sha512-qSKUSOIiYA/a0g5XXdxFcUFmv1hNICBD7QZ0QhGYVipPIhvpiydY8VZqr1thmCXvmn8aipMg64zuanB4eotK9A==",
      "path": "system.console/4.0.0",
      "hashPath": "system.console.4.0.0.nupkg.sha512"
    },
    "System.Diagnostics.Debug/4.0.11": {
      "type": "package",
      "serviceable": true,
      "sha512": "sha512-w5U95fVKHY4G8ASs/K5iK3J5LY+/dLFd4vKejsnI/ZhBsWS9hQakfx3Zr7lRWKg4tAw9r4iktyvsTagWkqYCiw==",
      "path": "system.diagnostics.debug/4.0.11",
      "hashPath": "system.diagnostics.debug.4.0.11.nupkg.sha512"
    },
    "System.Diagnostics.DiagnosticSource/4.0.0": {
      "type": "package",
      "serviceable": true,
      "sha512": "sha512-YKglnq4BMTJxfcr6nuT08g+yJ0UxdePIHxosiLuljuHIUR6t4KhFsyaHOaOc1Ofqp0PUvJ0EmcgiEz6T7vEx3w==",
      "path": "system.diagnostics.diagnosticsource/4.0.0",
      "hashPath": "system.diagnostics.diagnosticsource.4.0.0.nupkg.sha512"
    },
    "System.Diagnostics.Process/4.1.0": {
      "type": "package",
      "serviceable": true,
      "sha512": "sha512-mpVZ5bnlSs3tTeJ6jYyDJEIa6tavhAd88lxq1zbYhkkCu0Pno2+gHXcvZcoygq2d8JxW3gojXqNJMTAshduqZA==",
      "path": "system.diagnostics.process/4.1.0",
      "hashPath": "system.diagnostics.process.4.1.0.nupkg.sha512"
    },
    "System.Diagnostics.StackTrace/4.0.1": {
      "type": "package",
      "serviceable": true,
      "sha512": "sha512-6i2EbRq0lgGfiZ+FDf0gVaw9qeEU+7IS2+wbZJmFVpvVzVOgZEt0ScZtyenuBvs6iDYbGiF51bMAa0oDP/tujQ==",
      "path": "system.diagnostics.stacktrace/4.0.1",
      "hashPath": "system.diagnostics.stacktrace.4.0.1.nupkg.sha512"
    },
    "System.Diagnostics.TraceSource/4.0.0": {
      "type": "package",
      "serviceable": true,
      "sha512": "sha512-6WVCczFZKXwpWpzd/iJkYnsmWTSFFiU24Xx/YdHXBcu+nFI/ehTgeqdJQFbtRPzbrO3KtRNjvkhtj4t5/WwWsA==",
      "path": "system.diagnostics.tracesource/4.0.0",
      "hashPath": "system.diagnostics.tracesource.4.0.0.nupkg.sha512"
    },
    "System.Diagnostics.Tracing/4.1.0": {
      "type": "package",
      "serviceable": true,
      "sha512": "sha512-vDN1PoMZCkkdNjvZLql592oYJZgS7URcJzJ7bxeBgGtx5UtR5leNm49VmfHGqIffX4FKacHbI3H6UyNSHQknBg==",
      "path": "system.diagnostics.tracing/4.1.0",
      "hashPath": "system.diagnostics.tracing.4.1.0.nupkg.sha512"
    },
    "System.Globalization/4.3.0": {
      "type": "package",
      "serviceable": true,
      "sha512": "sha512-kYdVd2f2PAdFGblzFswE4hkNANJBKRmsfa2X5LG2AcWE1c7/4t0pYae1L8vfZ5xvE2nK/R9JprtToA61OSHWIg==",
      "path": "system.globalization/4.3.0",
      "hashPath": "system.globalization.4.3.0.nupkg.sha512"
    },
    "System.Globalization.Calendars/4.0.1": {
      "type": "package",
      "serviceable": true,
      "sha512": "sha512-L1c6IqeQ88vuzC1P81JeHmHA8mxq8a18NUBNXnIY/BVb+TCyAaGIFbhpZt60h9FJNmisymoQkHEFSE9Vslja1Q==",
      "path": "system.globalization.calendars/4.0.1",
      "hashPath": "system.globalization.calendars.4.0.1.nupkg.sha512"
    },
    "System.Globalization.Extensions/4.0.1": {
      "type": "package",
      "serviceable": true,
      "sha512": "sha512-KKo23iKeOaIg61SSXwjANN7QYDr/3op3OWGGzDzz7mypx0Za0fZSeG0l6cco8Ntp8YMYkIQcAqlk8yhm5/Uhcg==",
      "path": "system.globalization.extensions/4.0.1",
      "hashPath": "system.globalization.extensions.4.0.1.nupkg.sha512"
    },
    "System.IO/4.3.0": {
      "type": "package",
      "serviceable": true,
      "sha512": "sha512-3qjaHvxQPDpSOYICjUoTsmoq5u6QJAFRUITgeT/4gqkF1bajbSmb1kwSxEA8AHlofqgcKJcM8udgieRNhaJ5Cg==",
      "path": "system.io/4.3.0",
      "hashPath": "system.io.4.3.0.nupkg.sha512"
    },
    "System.IO.FileSystem/4.0.1": {
      "type": "package",
      "serviceable": true,
      "sha512": "sha512-IBErlVq5jOggAD69bg1t0pJcHaDbJbWNUZTPI96fkYWzwYbN6D9wRHMULLDd9dHsl7C2YsxXL31LMfPI1SWt8w==",
      "path": "system.io.filesystem/4.0.1",
      "hashPath": "system.io.filesystem.4.0.1.nupkg.sha512"
    },
    "System.IO.FileSystem.Primitives/4.0.1": {
      "type": "package",
      "serviceable": true,
      "sha512": "sha512-kWkKD203JJKxJeE74p8aF8y4Qc9r9WQx4C0cHzHPrY3fv/L/IhWnyCHaFJ3H1QPOH6A93whlQ2vG5nHlBDvzWQ==",
      "path": "system.io.filesystem.primitives/4.0.1",
      "hashPath": "system.io.filesystem.primitives.4.0.1.nupkg.sha512"
    },
    "System.IO.FileSystem.Watcher/4.0.0": {
      "type": "package",
      "serviceable": true,
      "sha512": "sha512-qM4Wr3La+RYb/03B0mZZjbA7tHsGzDffnuXP8Sl48HW2JwCjn3kfD5qdw0sqyNNowUipcJMi9/q6sMUrOIJ6UQ==",
      "path": "system.io.filesystem.watcher/4.0.0",
      "hashPath": "system.io.filesystem.watcher.4.0.0.nupkg.sha512"
    },
    "System.Linq/4.1.0": {
      "type": "package",
      "serviceable": true,
      "sha512": "sha512-bQ0iYFOQI0nuTnt+NQADns6ucV4DUvMdwN6CbkB1yj8i7arTGiTN5eok1kQwdnnNWSDZfIUySQY+J3d5KjWn0g==",
      "path": "system.linq/4.1.0",
      "hashPath": "system.linq.4.1.0.nupkg.sha512"
    },
    "System.Net.Http/4.1.0": {
      "type": "package",
      "serviceable": true,
      "sha512": "sha512-ULq9g3SOPVuupt+Y3U+A37coXzdNisB1neFCSKzBwo182u0RDddKJF8I5+HfyXqK6OhJPgeoAwWXrbiUXuRDsg==",
      "path": "system.net.http/4.1.0",
      "hashPath": "system.net.http.4.1.0.nupkg.sha512"
    },
    "System.Net.NameResolution/4.0.0": {
      "type": "package",
      "serviceable": true,
      "sha512": "sha512-JdqRdM1Qym3YehqdKIi5LHrpypP4JMfxKQSNCJ2z4WawkG0il+N3XfNeJOxll2XrTnG7WgYYPoeiu/KOwg0DQw==",
      "path": "system.net.nameresolution/4.0.0",
      "hashPath": "system.net.nameresolution.4.0.0.nupkg.sha512"
    },
    "System.Net.Primitives/4.0.11": {
      "type": "package",
      "serviceable": true,
      "sha512": "sha512-hVvfl4405DRjA2408luZekbPhplJK03j2Y2lSfMlny7GHXlkByw1iLnc9mgKW0GdQn73vvMcWrWewAhylXA4Nw==",
      "path": "system.net.primitives/4.0.11",
      "hashPath": "system.net.primitives.4.0.11.nupkg.sha512"
    },
    "System.Net.Requests/4.0.11": {
      "type": "package",
      "serviceable": true,
      "sha512": "sha512-vxGt7C0cZixN+VqoSW4Yakc1Y9WknmxauDqzxgpw/FnBdz4kQNN51l4wxdXX5VY1xjqy//+G+4CvJWp1+f+y6Q==",
      "path": "system.net.requests/4.0.11",
      "hashPath": "system.net.requests.4.0.11.nupkg.sha512"
    },
    "System.Net.Sockets/4.1.0": {
      "type": "package",
      "serviceable": true,
      "sha512": "sha512-xAz0N3dAV/aR/9g8r0Y5oEqU1JRsz29F5EGb/WVHmX3jVSLqi2/92M5hTad2aNWovruXrJpJtgZ9fccPMG9uSw==",
      "path": "system.net.sockets/4.1.0",
      "hashPath": "system.net.sockets.4.1.0.nupkg.sha512"
    },
    "System.Net.WebHeaderCollection/4.0.1": {
      "type": "package",
      "serviceable": true,
      "sha512": "sha512-XX2TIAN+wBSAIV51BU2FvvXMdstUa8b0FBSZmDWjZdwUMmggQSifpTOZ5fNH20z9ZCg2fkV1L5SsZnpO2RQDRQ==",
      "path": "system.net.webheadercollection/4.0.1",
      "hashPath": "system.net.webheadercollection.4.0.1.nupkg.sha512"
    },
    "System.Reflection/4.3.0": {
      "type": "package",
      "serviceable": true,
      "sha512": "sha512-KMiAFoW7MfJGa9nDFNcfu+FpEdiHpWgTcS2HdMpDvt9saK3y/G4GwprPyzqjFH9NTaGPQeWNHU+iDlDILj96aQ==",
      "path": "system.reflection/4.3.0",
      "hashPath": "system.reflection.4.3.0.nupkg.sha512"
    },
    "System.Reflection.Extensions/4.0.1": {
      "type": "package",
      "serviceable": true,
      "sha512": "sha512-GYrtRsZcMuHF3sbmRHfMYpvxZoIN2bQGrYGerUiWLEkqdEUQZhH3TRSaC/oI4wO0II1RKBPlpIa1TOMxIcOOzQ==",
      "path": "system.reflection.extensions/4.0.1",
      "hashPath": "system.reflection.extensions.4.0.1.nupkg.sha512"
    },
    "System.Reflection.Metadata/1.3.0": {
      "type": "package",
      "serviceable": true,
      "sha512": "sha512-jMSCxA4LSyKBGRDm/WtfkO03FkcgRzHxwvQRib1bm2GZ8ifKM1MX1al6breGCEQK280mdl9uQS7JNPXRYk90jw==",
      "path": "system.reflection.metadata/1.3.0",
      "hashPath": "system.reflection.metadata.1.3.0.nupkg.sha512"
    },
    "System.Reflection.Primitives/4.3.0": {
      "type": "package",
      "serviceable": true,
      "sha512": "sha512-5RXItQz5As4xN2/YUDxdpsEkMhvw3e6aNveFXUn4Hl/udNTCNhnKp8lT9fnc3MhvGKh1baak5CovpuQUXHAlIA==",
      "path": "system.reflection.primitives/4.3.0",
      "hashPath": "system.reflection.primitives.4.3.0.nupkg.sha512"
    },
    "System.Reflection.TypeExtensions/4.1.0": {
      "type": "package",
      "serviceable": true,
      "sha512": "sha512-tsQ/ptQ3H5FYfON8lL4MxRk/8kFyE0A+tGPXmVP967cT/gzLHYxIejIYSxp4JmIeFHVP78g/F2FE1mUUTbDtrg==",
      "path": "system.reflection.typeextensions/4.1.0",
      "hashPath": "system.reflection.typeextensions.4.1.0.nupkg.sha512"
    },
    "System.Resources.ResourceManager/4.3.0": {
      "type": "package",
      "serviceable": true,
      "sha512": "sha512-/zrcPkkWdZmI4F92gL/TPumP98AVDu/Wxr3CSJGQQ+XN6wbRZcyfSKVoPo17ilb3iOr0cCRqJInGwNMolqhS8A==",
      "path": "system.resources.resourcemanager/4.3.0",
      "hashPath": "system.resources.resourcemanager.4.3.0.nupkg.sha512"
    },
    "System.Runtime/4.3.0": {
      "type": "package",
      "serviceable": true,
      "sha512": "sha512-JufQi0vPQ0xGnAczR13AUFglDyVYt4Kqnz1AZaiKZ5+GICq0/1MH/mO/eAJHt/mHW1zjKBJd7kV26SrxddAhiw==",
      "path": "system.runtime/4.3.0",
      "hashPath": "system.runtime.4.3.0.nupkg.sha512"
    },
    "System.Runtime.Extensions/4.1.0": {
      "type": "package",
      "serviceable": true,
      "sha512": "sha512-CUOHjTT/vgP0qGW22U4/hDlOqXmcPq5YicBaXdUR2UiUoLwBT+olO6we4DVbq57jeX5uXH2uerVZhf0qGj+sVQ==",
      "path": "system.runtime.extensions/4.1.0",
      "hashPath": "system.runtime.extensions.4.1.0.nupkg.sha512"
    },
    "System.Runtime.Handles/4.0.1": {
      "type": "package",
      "serviceable": true,
      "sha512": "sha512-nCJvEKguXEvk2ymk1gqj625vVnlK3/xdGzx0vOKicQkoquaTBJTP13AIYkocSUwHCLNBwUbXTqTWGDxBTWpt7g==",
      "path": "system.runtime.handles/4.0.1",
      "hashPath": "system.runtime.handles.4.0.1.nupkg.sha512"
    },
    "System.Runtime.InteropServices/4.1.0": {
      "type": "package",
      "serviceable": true,
      "sha512": "sha512-16eu3kjHS633yYdkjwShDHZLRNMKVi/s0bY8ODiqJ2RfMhDMAwxZaUaWVnZ2P71kr/or+X9o/xFWtNqz8ivieQ==",
      "path": "system.runtime.interopservices/4.1.0",
      "hashPath": "system.runtime.interopservices.4.1.0.nupkg.sha512"
    },
    "System.Runtime.InteropServices.RuntimeInformation/4.0.0": {
      "type": "package",
      "serviceable": true,
      "sha512": "sha512-hWPhJxc453RCa8Z29O91EmfGeZIHX1ZH2A8L6lYQVSaKzku2DfArSfMEb1/MYYzPQRJZeu0c9dmYeJKxW5Fgng==",
      "path": "system.runtime.interopservices.runtimeinformation/4.0.0",
      "hashPath": "system.runtime.interopservices.runtimeinformation.4.0.0.nupkg.sha512"
    },
    "System.Runtime.Numerics/4.0.1": {
      "type": "package",
      "serviceable": true,
      "sha512": "sha512-+XbKFuzdmLP3d1o9pdHu2nxjNr2OEPqGzKeegPLCUMM71a0t50A/rOcIRmGs9wR7a8KuHX6hYs/7/TymIGLNqg==",
      "path": "system.runtime.numerics/4.0.1",
      "hashPath": "system.runtime.numerics.4.0.1.nupkg.sha512"
    },
    "System.Runtime.Serialization.Formatters/4.3.0": {
      "type": "package",
      "serviceable": true,
      "sha512": "sha512-KT591AkTNFOTbhZlaeMVvfax3RqhH1EJlcwF50Wm7sfnBLuHiOeZRRKrr1ns3NESkM20KPZ5Ol/ueMq5vg4QoQ==",
      "path": "system.runtime.serialization.formatters/4.3.0",
      "hashPath": "system.runtime.serialization.formatters.4.3.0.nupkg.sha512"
    },
    "System.Runtime.Serialization.Primitives/4.3.0": {
      "type": "package",
      "serviceable": true,
      "sha512": "sha512-Wz+0KOukJGAlXjtKr+5Xpuxf8+c8739RI1C+A2BoQZT+wMCCoMDDdO8/4IRHfaVINqL78GO8dW8G2lW/e45Mcw==",
      "path": "system.runtime.serialization.primitives/4.3.0",
      "hashPath": "system.runtime.serialization.primitives.4.3.0.nupkg.sha512"
    },
    "System.Security.Claims/4.0.1": {
      "type": "package",
      "serviceable": true,
      "sha512": "sha512-4Jlp0OgJLS/Voj1kyFP6MJlIYp3crgfH8kNQk2p7+4JYfc1aAmh9PZyAMMbDhuoolGNtux9HqSOazsioRiDvCw==",
      "path": "system.security.claims/4.0.1",
      "hashPath": "system.security.claims.4.0.1.nupkg.sha512"
    },
    "System.Security.Cryptography.Algorithms/4.2.0": {
      "type": "package",
      "serviceable": true,
      "sha512": "sha512-8JQFxbLVdrtIOKMDN38Fn0GWnqYZw/oMlwOUG/qz1jqChvyZlnUmu+0s7wLx7JYua/nAXoESpHA3iw11QFWhXg==",
      "path": "system.security.cryptography.algorithms/4.2.0",
      "hashPath": "system.security.cryptography.algorithms.4.2.0.nupkg.sha512"
    },
    "System.Security.Cryptography.Cng/4.2.0": {
      "type": "package",
      "serviceable": true,
      "sha512": "sha512-cUJ2h+ZvONDe28Szw3st5dOHdjndhJzQ2WObDEXAWRPEQBtVItVoxbXM/OEsTthl3cNn2dk2k0I3y45igCQcLw==",
      "path": "system.security.cryptography.cng/4.2.0",
      "hashPath": "system.security.cryptography.cng.4.2.0.nupkg.sha512"
    },
    "System.Security.Cryptography.Csp/4.0.0": {
      "type": "package",
      "serviceable": true,
      "sha512": "sha512-/i1Usuo4PgAqgbPNC0NjbO3jPW//BoBlTpcWFD1EHVbidH21y4c1ap5bbEMSGAXjAShhMH4abi/K8fILrnu4BQ==",
      "path": "system.security.cryptography.csp/4.0.0",
      "hashPath": "system.security.cryptography.csp.4.0.0.nupkg.sha512"
    },
    "System.Security.Cryptography.Encoding/4.0.0": {
      "type": "package",
      "serviceable": true,
      "sha512": "sha512-FbKgE5MbxSQMPcSVRgwM6bXN3GtyAh04NkV8E5zKCBE26X0vYW0UtTa2FIgkH33WVqBVxRgxljlVYumWtU+HcQ==",
      "path": "system.security.cryptography.encoding/4.0.0",
      "hashPath": "system.security.cryptography.encoding.4.0.0.nupkg.sha512"
    },
    "System.Security.Cryptography.OpenSsl/4.0.0": {
      "type": "package",
      "serviceable": true,
      "sha512": "sha512-HUG/zNUJwEiLkoURDixzkzZdB5yGA5pQhDP93ArOpDPQMteURIGERRNzzoJlmTreLBWr5lkFSjjMSk8ySEpQMw==",
      "path": "system.security.cryptography.openssl/4.0.0",
      "hashPath": "system.security.cryptography.openssl.4.0.0.nupkg.sha512"
    },
    "System.Security.Cryptography.Primitives/4.0.0": {
      "type": "package",
      "serviceable": true,
      "sha512": "sha512-Wkd7QryWYjkQclX0bngpntW5HSlMzeJU24UaLJQ7YTfI8ydAVAaU2J+HXLLABOVJlKTVvAeL0Aj39VeTe7L+oA==",
      "path": "system.security.cryptography.primitives/4.0.0",
      "hashPath": "system.security.cryptography.primitives.4.0.0.nupkg.sha512"
    },
    "System.Security.Cryptography.X509Certificates/4.1.0": {
      "type": "package",
      "serviceable": true,
      "sha512": "sha512-4HEfsQIKAhA1+ApNn729Gi09zh+lYWwyIuViihoMDWp1vQnEkL2ct7mAbhBlLYm+x/L4Rr/pyGge1lIY635e0w==",
      "path": "system.security.cryptography.x509certificates/4.1.0",
      "hashPath": "system.security.cryptography.x509certificates.4.1.0.nupkg.sha512"
    },
    "System.Security.Principal/4.0.1": {
      "type": "package",
      "serviceable": true,
      "sha512": "sha512-On+SKhXY5rzxh/S8wlH1Rm0ogBlu7zyHNxeNBiXauNrhHRXAe9EuX8Yl5IOzLPGU5Z4kLWHMvORDOCG8iu9hww==",
      "path": "system.security.principal/4.0.1",
      "hashPath": "system.security.principal.4.0.1.nupkg.sha512"
    },
    "System.Security.Principal.Windows/4.0.0": {
      "type": "package",
      "serviceable": true,
      "sha512": "sha512-iFx15AF3RMEPZn3COh8+Bb2Thv2zsmLd93RchS1b8Mj5SNYeGqbYNCSn5AES1+gq56p4ujGZPrl0xN7ngkXOHg==",
      "path": "system.security.principal.windows/4.0.0",
      "hashPath": "system.security.principal.windows.4.0.0.nupkg.sha512"
    },
    "System.Text.Encoding/4.3.0": {
      "type": "package",
      "serviceable": true,
      "sha512": "sha512-BiIg+KWaSDOITze6jGQynxg64naAPtqGHBwDrLaCtixsa5bKiR8dpPOHA7ge3C0JJQizJE+sfkz1wV+BAKAYZw==",
      "path": "system.text.encoding/4.3.0",
      "hashPath": "system.text.encoding.4.3.0.nupkg.sha512"
    },
    "System.Text.Encoding.Extensions/4.0.11": {
      "type": "package",
      "serviceable": true,
      "sha512": "sha512-jtbiTDtvfLYgXn8PTfWI+SiBs51rrmO4AAckx4KR6vFK9Wzf6tI8kcRdsYQNwriUeQ1+CtQbM1W4cMbLXnj/OQ==",
      "path": "system.text.encoding.extensions/4.0.11",
      "hashPath": "system.text.encoding.extensions.4.0.11.nupkg.sha512"
    },
    "System.Text.RegularExpressions/4.1.0": {
      "type": "package",
      "serviceable": true,
      "sha512": "sha512-i88YCXpRTjCnoSQZtdlHkAOx4KNNik4hMy83n0+Ftlb7jvV6ZiZWMpnEZHhjBp6hQVh8gWd/iKNPzlPF7iyA2g==",
      "path": "system.text.regularexpressions/4.1.0",
      "hashPath": "system.text.regularexpressions.4.1.0.nupkg.sha512"
    },
    "System.Threading/4.0.11": {
      "type": "package",
      "serviceable": true,
      "sha512": "sha512-N+3xqIcg3VDKyjwwCGaZ9HawG9aC6cSDI+s7ROma310GQo8vilFZa86hqKppwTHleR/G0sfOzhvgnUxWCR/DrQ==",
      "path": "system.threading/4.0.11",
      "hashPath": "system.threading.4.0.11.nupkg.sha512"
    },
    "System.Threading.Overlapped/4.0.1": {
      "type": "package",
      "serviceable": true,
      "sha512": "sha512-f7aLuLkBoCQM2kng7zqLFBXz9Gk48gDK8lk1ih9rH/1arJJzZK9gJwNvPDhL6Ps/l6rwOr8jw+4FCHL0KKWiEg==",
      "path": "system.threading.overlapped/4.0.1",
      "hashPath": "system.threading.overlapped.4.0.1.nupkg.sha512"
    },
    "System.Threading.Tasks/4.3.0": {
      "type": "package",
      "serviceable": true,
      "sha512": "sha512-LbSxKEdOUhVe8BezB/9uOGGppt+nZf6e1VFyw6v3DN6lqitm0OSn2uXMOdtP0M3W4iMcqcivm2J6UgqiwwnXiA==",
      "path": "system.threading.tasks/4.3.0",
      "hashPath": "system.threading.tasks.4.3.0.nupkg.sha512"
    },
    "System.Threading.Tasks.Extensions/4.0.0": {
      "type": "package",
      "serviceable": true,
      "sha512": "sha512-pH4FZDsZQ/WmgJtN4LWYmRdJAEeVkyriSwrv2Teoe5FOU0Yxlb6II6GL8dBPOfRmutHGATduj3ooMt7dJ2+i+w==",
      "path": "system.threading.tasks.extensions/4.0.0",
      "hashPath": "system.threading.tasks.extensions.4.0.0.nupkg.sha512"
    },
    "System.Threading.Thread/4.0.0": {
      "type": "package",
      "serviceable": true,
      "sha512": "sha512-gIdJqDXlOr5W9zeqFErLw3dsOsiShSCYtF9SEHitACycmvNvY8odf9kiKvp6V7aibc8C4HzzNBkWXjyfn7plbQ==",
      "path": "system.threading.thread/4.0.0",
      "hashPath": "system.threading.thread.4.0.0.nupkg.sha512"
    },
    "System.Threading.ThreadPool/4.0.10": {
      "type": "package",
      "serviceable": true,
      "sha512": "sha512-IMXgB5Vf/5Qw1kpoVgJMOvUO1l32aC+qC3OaIZjWJOjvcxuxNWOK2ZTWWYXfij22NHxT2j1yWX5vlAeQWld9vA==",
      "path": "system.threading.threadpool/4.0.10",
      "hashPath": "system.threading.threadpool.4.0.10.nupkg.sha512"
    },
    "System.Threading.Timer/4.0.1": {
      "type": "package",
      "serviceable": true,
      "sha512": "sha512-saGfUV8uqVW6LeURiqxcGhZ24PzuRNaUBtbhVeuUAvky1naH395A/1nY0P2bWvrw/BreRtIB/EzTDkGBpqCwEw==",
      "path": "system.threading.timer/4.0.1",
      "hashPath": "system.threading.timer.4.0.1.nupkg.sha512"
    },
    "System.Xml.ReaderWriter/4.0.11": {
      "type": "package",
      "serviceable": true,
      "sha512": "sha512-ZIiLPsf67YZ9zgr31vzrFaYQqxRPX9cVHjtPSnmx4eN6lbS/yEyYNr2vs1doGDEscF0tjCZFsk9yUg1sC9e8tg==",
      "path": "system.xml.readerwriter/4.0.11",
      "hashPath": "system.xml.readerwriter.4.0.11.nupkg.sha512"
    },
    "System.Xml.XmlDocument/4.0.1": {
      "type": "package",
      "serviceable": true,
      "sha512": "sha512-2eZu6IP+etFVBBFUFzw2w6J21DqIN5eL9Y8r8JfJWUmV28Z5P0SNU01oCisVHQgHsDhHPnmq2s1hJrJCFZWloQ==",
      "path": "system.xml.xmldocument/4.0.1",
      "hashPath": "system.xml.xmldocument.4.0.1.nupkg.sha512"
    },
    "websocketsharp.core/1.0.0": {
      "type": "package",
      "serviceable": true,
      "sha512": "sha512-Pdr9TtOtlaxKI6XtuHdRBrxFsBPCpqxNerAFbpdb2K7foBMYJmUOV+wqhklZilphtFjxT5zN1X6X3iyG/OovAQ==",
      "path": "websocketsharp.core/1.0.0",
      "hashPath": "websocketsharp.core.1.0.0.nupkg.sha512"
    },
    "SupBankChain.Core/1.0.0": {
      "type": "project",
      "serviceable": false,
      "sha512": ""
    }
  }
}